// Jest Snapshot v1, https://goo.gl/fbAQLP

exports[`Snapshot test MoreButton  1`] = `
<button
  className="ant-btn ant-btn-block"
  onClick={[Function]}
  type="button"
>
  <span>
    Подробнее
  </span>
</button>
`;
